SuzyZsj - Take-home Exercise 4 ：Prototyping Modules for Be Weatherwise or Otherwise
…
# 计算每个站点的缺失值总数
missing_values_by_station <- data_processed %>%
  group_by(Station) %>%
  summarise(across(everything(), ~sum(is.na(.), na.rm = TRUE), .names = "missing_{.col}")) %>%
  mutate(TotalMissing = rowSums(select(., starts_with("missing")))) %>%
  select(Station, TotalMissing) %>%
  arrange(desc(TotalMissing))

missing_values_by_station <- missing_values_by_station %>%
  mutate(across(everything(), ~ifelse(is.na(.), "-", .)))

missing_values_by_station

# A tibble: 63 × 2
   Station                TotalMissing
   <chr>                         <dbl>
 1 Serangoon                     13078
 2 Yishun                        12271
 3 Pasir Ris (West)              12247
 4 Kent Ridge                    12170
 5 Upper Peirce Reservoir        11898
 6 Ulu Pandan                    11858
 7 Bukit Panjang                 11836
 8 Upper Thomson                 11830
 9 Macritchie Reservoir          11803
10 Marine Parade                 11667
# ℹ 53 more rows
…
