SuzyZsj - Take-home Exercise 3 ：Be Weatherwise or Otherwise
…
To make the rainfall amount and its corresponding time more clear in the table for visualization purposes, I will add a ‘Date’ column, facilitating further visual analysis later on.

combined_data$Date <- as.Date(paste(combined_data$Year, combined_data$Month, combined_data$Day, sep = "-"))
final_data <- combined_data[, c('Year','Month','Day','Date','Daily Rainfall Total (mm)' )]

4.4 Final Dataset

The final data presented has 5 variables, 5 columns, and 310 rows. Additionally, it confirms that the years and months are those that I intend to study.

The Result

final_data

# A tibble: 310 × 5
    Year Month   Day Date       `Daily Rainfall Total (mm)`
   <dbl> <dbl> <dbl> <date>                           <dbl>
 1  1983     8     1 1983-08-01                         0  
 2  1983     8     2 1983-08-02                         3.7
 3  1983     8     3 1983-08-03                        60.6
 4  1983     8     4 1983-08-04                        11.5
 5  1983     8     5 1983-08-05                         5.8
 6  1983     8     6 1983-08-06                         0  
 7  1983     8     7 1983-08-07                         0.9
 8  1983     8     8 1983-08-08                         0  
 9  1983     8     9 1983-08-09                         0  
10  1983     8    10 1983-08-10                         0  
# ℹ 300 more rows
…
